Version 4
SHEET 1 904 680
WIRE -384 96 -384 64
WIRE -32 96 -128 96
WIRE 112 96 32 96
WIRE 208 96 112 96
WIRE 224 96 208 96
WIRE 432 112 288 112
WIRE 480 112 432 112
WIRE 560 112 480 112
WIRE 688 112 624 112
WIRE 768 112 688 112
WIRE 800 112 768 112
WIRE 832 112 800 112
WIRE 224 128 208 128
WIRE 208 192 208 128
WIRE 240 192 208 192
WIRE 272 192 240 192
WIRE 688 192 688 176
WIRE 720 192 688 192
WIRE 768 192 720 192
WIRE 272 208 272 192
WIRE 384 208 272 208
WIRE 480 208 480 112
WIRE 480 208 464 208
WIRE -384 224 -384 176
WIRE 720 240 720 192
FLAG 240 336 0
FLAG 256 144 vcc
FLAG 256 80 0
FLAG -128 96 in
FLAG 800 112 out
FLAG 720 240 0
FLAG -128 176 0
FLAG 112 16 vcc
FLAG 112 176 0
FLAG 208 96 e+
FLAG 432 112 amp
FLAG -384 64 VCC
FLAG -384 224 0
SYMBOL Opamps\\UniversalOpamp2 256 112 M180
SYMATTR InstName U1
SYMBOL res 224 176 R0
SYMATTR InstName R1
SYMATTR Value 10k
SYMBOL res 480 192 R90
WINDOW 0 0 56 VBottom 2
WINDOW 3 32 56 VTop 2
SYMATTR InstName R2
SYMATTR Value 40k
SYMBOL cap 224 272 R0
SYMATTR InstName C1
SYMATTR Value 100nf
SYMBOL cap 672 112 R0
SYMATTR InstName C2
SYMATTR Value 10n
SYMBOL res 752 96 R0
SYMATTR InstName R3
SYMATTR Value 200k
SYMBOL res 96 0 R0
SYMATTR InstName R4
SYMATTR Value 32k
SYMBOL res 96 80 R0
SYMATTR InstName R5
SYMATTR Value 32k
SYMBOL cap 32 80 R90
WINDOW 0 0 32 VBottom 2
WINDOW 3 32 32 VTop 2
SYMATTR InstName C3
SYMATTR Value 10n
SYMBOL voltage -128 80 R0
WINDOW 123 0 0 Left 0
WINDOW 39 0 0 Left 0
SYMATTR InstName V1
SYMATTR Value PULSE(0 1 0 1p 1p 0.1m 0.2m 10)
SYMBOL diode 560 128 R270
WINDOW 0 32 32 VTop 2
WINDOW 3 0 32 VBottom 2
SYMATTR InstName D1
SYMBOL voltage -384 80 R0
WINDOW 123 0 0 Left 0
WINDOW 39 0 0 Left 0
SYMATTR InstName V2
SYMATTR Value 5
SYMBOL cap 896 96 R90
WINDOW 0 0 32 VBottom 2
WINDOW 3 32 32 VTop 2
SYMATTR InstName C4
SYMATTR Value 100n
TEXT -160 360 Left 2 !.tran 0 4m 0 0.1
