EESchema Schematic File Version 4
EELAYER 30 0
EELAYER END
$Descr A4 11693 8268
encoding utf-8
Sheet 1 1
Title ""
Date ""
Rev ""
Comp ""
Comment1 ""
Comment2 ""
Comment3 ""
Comment4 ""
$EndDescr
$Comp
L Timer:NE555 5V
U 1 1 5D8CE7B3
P 2150 2250
F 0 "5V" H 2150 2831 50  0000 C CNN
F 1 "NE555" H 2150 2740 50  0000 C CNN
F 2 "" H 2150 2250 50  0001 C CNN
F 3 "http://www.ti.com/lit/ds/symlink/ne555.pdf" H 2150 2250 50  0001 C CNN
	1    2150 2250
	1    0    0    -1  
$EndComp
$Comp
L Connector:Conn_01x03_Female J?
U 1 1 5D8DCC02
P 700 1350
F 0 "J?" H 592 1025 50  0000 C CNN
F 1 "Conn_01x03_Female" H 592 1116 50  0000 C CNN
F 2 "" H 700 1350 50  0001 C CNN
F 3 "~" H 700 1350 50  0001 C CNN
	1    700  1350
	-1   0    0    1   
$EndComp
$Comp
L power:VCC #PWR?
U 1 1 5D8E4E86
P 2150 1250
F 0 "#PWR?" H 2150 1100 50  0001 C CNN
F 1 "VCC" H 2167 1423 50  0000 C CNN
F 2 "" H 2150 1250 50  0001 C CNN
F 3 "" H 2150 1250 50  0001 C CNN
	1    2150 1250
	1    0    0    -1  
$EndComp
$Comp
L power:GND #PWR?
U 1 1 5D8E544E
P 2150 3350
F 0 "#PWR?" H 2150 3100 50  0001 C CNN
F 1 "GND" H 2155 3177 50  0000 C CNN
F 2 "" H 2150 3350 50  0001 C CNN
F 3 "" H 2150 3350 50  0001 C CNN
	1    2150 3350
	1    0    0    -1  
$EndComp
Wire Wire Line
	2150 1250 2150 1600
Wire Wire Line
	1650 2450 1400 2450
Wire Wire Line
	1400 2450 1400 1600
Wire Wire Line
	1400 1600 2150 1600
Connection ~ 2150 1600
Wire Wire Line
	2150 1600 2150 1850
$Comp
L Device:C C2
U 1 1 5D8F1F56
P 1550 2900
F 0 "C2" H 1665 2946 50  0000 L CNN
F 1 "10nF" H 1665 2855 50  0000 L CNN
F 2 "" H 1588 2750 50  0001 C CNN
F 3 "~" H 1550 2900 50  0001 C CNN
	1    1550 2900
	1    0    0    -1  
$EndComp
Wire Wire Line
	2150 2650 2150 3050
Wire Wire Line
	1550 3050 2150 3050
Connection ~ 2150 3050
Wire Wire Line
	2150 3050 2150 3350
Wire Wire Line
	1550 2750 1550 2250
Wire Wire Line
	1550 2250 1650 2250
Wire Wire Line
	1650 2050 1200 2050
Wire Wire Line
	1200 2050 1200 2700
Wire Wire Line
	1200 2700 2650 2700
Wire Wire Line
	2650 2700 2650 2450
$Comp
L Device:C C1
U 1 1 5D8F83E5
P 2800 2850
F 0 "C1" H 2915 2896 50  0000 L CNN
F 1 "10nF" H 2915 2805 50  0000 L CNN
F 2 "" H 2838 2700 50  0001 C CNN
F 3 "~" H 2800 2850 50  0001 C CNN
	1    2800 2850
	1    0    0    -1  
$EndComp
Wire Wire Line
	2650 2450 2800 2450
Connection ~ 2650 2450
Wire Wire Line
	2800 3000 2800 3050
Wire Wire Line
	2800 3050 2150 3050
Wire Wire Line
	3100 2250 2650 2250
$Comp
L Device:R R1
U 1 1 5D8FAF47
P 3100 1750
F 0 "R1" H 3170 1796 50  0000 L CNN
F 1 "577Ω" H 3170 1705 50  0000 L CNN
F 2 "" V 3030 1750 50  0001 C CNN
F 3 "~" H 3100 1750 50  0001 C CNN
	1    3100 1750
	1    0    0    -1  
$EndComp
Wire Wire Line
	2150 1600 3100 1600
Wire Wire Line
	3100 1900 3100 2250
Wire Wire Line
	2650 2050 3550 2050
Text GLabel 3550 2050 2    50   Input ~ 0
Q
$Comp
L Device:R R2
U 1 1 5D8F9030
P 3100 2450
F 0 "R2" H 3170 2496 50  0000 L CNN
F 1 "14,1kΩ" H 3170 2405 50  0000 L CNN
F 2 "" V 3030 2450 50  0001 C CNN
F 3 "~" H 3100 2450 50  0001 C CNN
	1    3100 2450
	1    0    0    -1  
$EndComp
$Comp
L Sensor_Proximity:CNY70 U?
U 1 1 5D90E9E8
P 4700 2250
F 0 "U?" H 4700 2567 50  0000 C CNN
F 1 "CNY70" H 4700 2476 50  0000 C CNN
F 2 "OptoDevice:Vishay_CNY70" H 4700 2050 50  0001 C CNN
F 3 "https://www.vishay.com/docs/83751/cny70.pdf" H 4700 2350 50  0001 C CNN
	1    4700 2250
	1    0    0    -1  
$EndComp
Wire Wire Line
	3100 2300 3100 2250
Connection ~ 3100 2250
Wire Wire Line
	3100 2600 2800 2600
Wire Wire Line
	2800 2450 2800 2600
Connection ~ 2800 2600
Wire Wire Line
	2800 2600 2800 2700
$Comp
L Device:R R3
U 1 1 5D94BFF2
P 4250 2000
F 0 "R3" H 4320 2046 50  0000 L CNN
F 1 "75Ω" H 4320 1955 50  0000 L CNN
F 2 "" V 4180 2000 50  0001 C CNN
F 3 "~" H 4250 2000 50  0001 C CNN
	1    4250 2000
	1    0    0    -1  
$EndComp
Wire Wire Line
	4250 1700 4250 1850
Wire Wire Line
	4250 2150 4400 2150
$Comp
L power:GND #PWR?
U 1 1 5D954274
P 4250 2350
F 0 "#PWR?" H 4250 2100 50  0001 C CNN
F 1 "GND" H 4255 2177 50  0000 C CNN
F 2 "" H 4250 2350 50  0001 C CNN
F 3 "" H 4250 2350 50  0001 C CNN
	1    4250 2350
	1    0    0    -1  
$EndComp
Wire Wire Line
	4250 2350 4400 2350
Text GLabel 4250 1700 1    50   Input ~ 0
Q
$Comp
L Amplifier_Operational:LM324 U?
U 1 1 5D961246
P 6750 1500
F 0 "U?" H 6750 1867 50  0000 C CNN
F 1 "LM324" H 6750 1776 50  0000 C CNN
F 2 "" H 6700 1600 50  0001 C CNN
F 3 "http://www.ti.com/lit/ds/symlink/lm2902-n.pdf" H 6800 1700 50  0001 C CNN
	1    6750 1500
	1    0    0    1   
$EndComp
$Comp
L Amplifier_Operational:LM324 U?
U 2 1 5D9636A5
P 6750 2450
F 0 "U?" H 6750 2817 50  0000 C CNN
F 1 "LM324" H 6750 2726 50  0000 C CNN
F 2 "" H 6700 2550 50  0001 C CNN
F 3 "http://www.ti.com/lit/ds/symlink/lm2902-n.pdf" H 6800 2650 50  0001 C CNN
	2    6750 2450
	1    0    0    -1  
$EndComp
$Comp
L Amplifier_Operational:LM324 U?
U 3 1 5D964C00
P 7700 2450
F 0 "U?" H 7700 2083 50  0000 C CNN
F 1 "LM324" H 7700 2174 50  0000 C CNN
F 2 "" H 7650 2550 50  0001 C CNN
F 3 "http://www.ti.com/lit/ds/symlink/lm2902-n.pdf" H 7750 2650 50  0001 C CNN
	3    7700 2450
	-1   0    0    -1  
$EndComp
$Comp
L Amplifier_Operational:LM324 U?
U 4 1 5D96A07E
P 7700 1500
F 0 "U?" H 7700 1133 50  0000 C CNN
F 1 "LM324" H 7700 1224 50  0000 C CNN
F 2 "" H 7650 1600 50  0001 C CNN
F 3 "http://www.ti.com/lit/ds/symlink/lm2902-n.pdf" H 7750 1700 50  0001 C CNN
	4    7700 1500
	-1   0    0    1   
$EndComp
$Comp
L Amplifier_Operational:LM324 U?
U 5 1 5D98991C
P 7250 2050
F 0 "U?" V 6925 2050 50  0000 C CNN
F 1 "LM324" V 7016 2050 50  0000 C CNN
F 2 "" H 7200 2150 50  0001 C CNN
F 3 "http://www.ti.com/lit/ds/symlink/lm2902-n.pdf" H 7300 2250 50  0001 C CNN
	5    7250 2050
	0    -1   1    0   
$EndComp
$Comp
L power:GND #PWR?
U 1 1 5D98AD12
P 8650 2100
F 0 "#PWR?" H 8650 1850 50  0001 C CNN
F 1 "GND" H 8655 1927 50  0000 C CNN
F 2 "" H 8650 2100 50  0001 C CNN
F 3 "" H 8650 2100 50  0001 C CNN
	1    8650 2100
	1    0    0    -1  
$EndComp
Wire Wire Line
	7550 1950 8650 1950
Wire Wire Line
	8650 1950 8650 2100
$EndSCHEMATC
